/* XPM */
static const char * view_small_icons_xpm[] = {
"16 16 61 1",
" 	c None",
".	c #8DB1DD",
"+	c #7BA7DC",
"@	c #7AA6DC",
"#	c #7AA4DA",
"$	c #79A2D8",
"%	c #76A0D5",
"&	c #759ED4",
"*	c #739DD2",
"=	c #729ACF",
"-	c #7099CE",
";	c #6F96CB",
">	c #6C94C9",
",	c #7A9AC4",
"'	c #85ACDD",
")	c #92B9E8",
"!	c #6F90C1",
"~	c #668BC0",
"{	c #7AA4DB",
"]	c #FFFFFF",
"^	c #6387BD",
"/	c #79A3D9",
"(	c #D1D1D1",
"_	c #60B0EB",
":	c #99CF90",
"<	c #FEFEFE",
"[	c #6085BA",
"}	c #5E81B7",
"|	c #FDFDFD",
"1	c #5C7EB5",
"2	c #FFAA73",
"3	c #F0D567",
"4	c #5A7CB2",
"5	c #739CD1",
"6	c #FCFCFC",
"7	c #587AB0",
"8	c #6F97CC",
"9	c #FBFBFB",
"0	c #5475AC",
"a	c #6E94CA",
"b	c #FE6F6B",
"c	c #5373AA",
"d	c #6C92C8",
"e	c #FFC8C7",
"f	c #D8EDD5",
"g	c #E8E8E8",
"h	c #E9E9E9",
"i	c #EAEAEA",
"j	c #EBEBEB",
"k	c #5172A9",
"l	c #5171A9",
"m	c #688EC3",
"n	c #6488BE",
"o	c #6185BB",
"p	c #5F83B9",
"q	c #5C7EB4",
"r	c #587BB1",
"s	c #5779AE",
"t	c #5676AD",
"u	c #5475AB",
"v	c #5373A9",
"                ",
" .+@#$%&*=-;>,  ",
"')))))))))))))! ",
"++++++++++++++~ ",
"{]]]]]]]]]]]]]^ ",
"/]((]__]::<((][ ",
"$]((]__]::<((]} ",
"%]]]]]<<<||||]1 ",
"&]__]((<22|33]4 ",
"5]__<((|22633]7 ",
"8]<|||6666999]0 ",
"a]bb6::6((9((]c ",
"d]ee]ff]gh]ij]k ",
"lm~nopq4rstuvll ",
"                ",
"                "};
